{"status_updates":[{"id":114778,"message":"Done Deal: @lob raises $2.4M http://techcrunch.com/2013/11/04/cloud-printing-shipping-service-lob-raises-2-4-million-seed-round/ \u0387 37 intros on AngelList \u0387 Funded by @joshu @buchheit @sama @alexisohanian @daltonc @garrytan @kevinhale","created_at":"2013-11-10T18:00:01Z"},{"id":114707,"message":"Done Deal: @tylr-mobile raises $1.5M http://venturebeat.com/2013/11/04/tylr-mobile-nabs-250k-more-from-salesforce-com-for-its-smart-mobile-inbox-exclusive/ \u0387 19 intros on AngelList","created_at":"2013-11-09T18:00:02Z"},{"id":114597,"message":"Done Deal: @knotch raises $1.5M http://knotchworthy.tumblr.com/post/65640584672/building-the-worlds-first-interest-driven-network \u0387 40 intros on AngelList","created_at":"2013-11-08T18:00:00Z"},{"id":114473,"message":"Done Deal: @shelfbucks raises $500k http://www.aquilacommercial.com/news/view/Austin-startup-Shelfbucks-aims-to-help-retailers-connect-with-customers \u0387 12 intros on AngelList","created_at":"2013-11-07T18:00:00Z"},{"id":114331,"message":"Done Deal: @rocklive raises $1.1M \u0387 15 intros on AngelList \u0387 Funded by @nala-investments @danny-davis @justinbieber","created_at":"2013-11-06T18:00:00Z"},{"id":114172,"message":"Done Deal: @embarke raises $1.3M http://pandodaily.com/2013/10/14/embarke-raises-1-25-million-to-make-marketing-email-smarter-and-less-intrusive/ \u0387 8 intros on AngelList \u0387 Funded by @social-leverage","created_at":"2013-11-05T18:00:01Z"},{"id":113991,"message":"Done Deal: @alminder raises $1.5M http://www.finsmes.com/2013/10/alminder-closes-1-525m-seed-funding.html \u0387 16 intros on AngelList","created_at":"2013-11-04T18:00:00Z"},{"id":113873,"message":"Done Deal: @ad-hoc-labs raises $2M http://pandodaily.com/2013/09/26/identity-evangelist-burner-gets-2m-to-help-consumers-reclaim-control-of-their-mobile-communications/ \u0387 27 intros on AngelList \u0387 Funded by @founder-collective @500startups","created_at":"2013-11-03T17:00:00Z"},{"id":113808,"message":"Done Deal: @kyck raises $505k http://www.sec.gov/Archives/edgar/data/1532169/000120919113048263/xslFormDX01/primary_doc.xml \u0387 9 intros on AngelList","created_at":"2013-11-02T17:00:00Z"},{"id":113730,"message":"Done Deal: @puralytics raises $4M http://www.wateronline.com/doc/puralytics-completes-m-in-series-a-funding-0001 \u0387 11 intros on AngelList","created_at":"2013-11-01T17:00:00Z"},{"id":113614,"message":"Done Deal: @bytelight raises $3M http://pandodaily.com/2013/10/25/bostons-bytelight-raises-3m-series-a-as-it-promises-to-let-retailers-find-you-anywhere/ \u0387 30 intros on AngelList \u0387 Funded by @dondodge @sandhillangels @motorola-mobile-solutions","created_at":"2013-10-31T17:00:00Z"},{"id":113466,"message":"Done Deal: @everest raises $2M http://blogs.wsj.com/venturecapital/2013/10/17/evr-st-raises-2m-for-app-to-help-people-achieve-goals/?mod=WSJBlog&utm_source=dlvr.it&utm_medium=twitter \u0387 22 intros on AngelList","created_at":"2013-10-30T17:00:17Z"},{"id":113342,"message":"Done Deal: @formlabs raises $19M http://blogs.wsj.com/venturecapital/2013/10/25/3-d-printing-boom-sparks-big-venture-round-for-kickstarter-vet-formlabs/ \u0387 72 intros on AngelList \u0387 Funded by @innovation-endeavors-1 @dfj @pitango","created_at":"2013-10-29T17:00:00Z"},{"id":111682,"message":"Done Deal: @tulip-retail raises $2.4M http://techcrunch.com/2013/10/03/tulip-raises-2-4m-from-softtech-vc-and-others-to-provide-connected-online-mobile-and-in-store-software-and-hardware-to-retailers/ \u0387 38 intros on AngelList \u0387 Funded by @photomatt","created_at":"2013-10-10T17:00:00Z"},{"id":111574,"message":"Done Deal: @ministry-of-supply raises $1.1M http://techcrunch.com/2013/09/26/after-kickstarter-success-ministry-of-supply-lands-1-1m-to-expand-its-tech-savvy-mens-line/ \u0387 71 intros on AngelList \u0387 Funded by @matthuang @kevinhenrikson @vegastechfund","created_at":"2013-10-09T17:00:00Z"},{"id":111455,"message":"Done Deal: @upcounsel raises $1.5M http://techcrunch.com/2013/10/02/upcounsel-1-5-million/ \u0387 57 intros on AngelList","created_at":"2013-10-08T17:00:00Z"},{"id":111339,"message":"Done Deal: @reesio raises $1.1M http://techcrunch.com/2013/10/01/reesio-raises-1-million-for-its-real-estate-software-platform/ \u0387 45 intros on AngelList","created_at":"2013-10-07T17:00:00Z"},{"id":111245,"message":"Done Deal: @ridepal raises $3.2M \u0387 23 intros on AngelList \u0387 Funded by @claremont-creek-ventures","created_at":"2013-10-06T17:00:00Z"},{"id":110361,"message":"Done Deal: @matterport raises $2.8M http://www.finsmes.com/2013/09/matterport-raises-2-8m-series-a-1-financing.html \u0387 15 intros on AngelList","created_at":"2013-09-28T17:00:00Z"},{"id":110281,"message":"Done Deal: @remind101 raises $3.5M http://techcrunch.com/2013/09/18/now-in-30k-schools-remind101-lands-3-5m-from-socialcapital-yuri-milner-more-to-bring-texting-to-teachers/ \u0387 35 intros on AngelList \u0387 Funded by @maneesh","created_at":"2013-09-27T17:00:01Z"},{"id":110183,"message":"Done Deal: @adheretech raises $300k \u0387 5 intros on AngelList \u0387 Funded by @various-adheretech-angel-investors","created_at":"2013-09-26T17:00:00Z"},{"id":110093,"message":"Done Deal: @butter-systems raises $150k \u0387 13 intros on AngelList \u0387 Funded by @infoteria","created_at":"2013-09-25T22:22:02Z"},{"id":110039,"message":"Done Deal: @referralmd raises $70k \u0387 11 intros on AngelList \u0387 Funded by @jonathan-govette","created_at":"2013-09-25T17:00:00Z"},{"id":109619,"message":"Done Deal: @noonswoon raises $395k \u0387 59 intros on AngelList \u0387 Funded by @vinnie @khailee @jpaine @golden-gate-ventures @andrewv @chintaka-ranatunga @thd79 @jdoevelaar @pacific-tiger-group @natavudh","created_at":"2013-09-22T17:00:00Z"},{"id":109572,"message":"Done Deal: @apiary-io raises $1.6M http://www.businesswire.com/news/home/20130917006806/en/Apiary-Secures-1.6-Million-Funding \u0387 6 intros on AngelList \u0387 Funded by @bandrew @xg-ventures @baseline-ventures @flybridge-capital-partners @credo-ventures","created_at":"2013-09-21T17:00:00Z"},{"id":109484,"message":"Done Deal: @off-track-planet raises $250k \u0387 10 intros on AngelList \u0387 Funded by @cincytech","created_at":"2013-09-20T17:00:00Z"},{"id":108965,"message":"Done Deal: @informedika raises $425k \u0387 97 intros on AngelList \u0387 Funded by @rmarini @jamescurrier @stan_007 @ozeev @cmichel","created_at":"2013-09-14T17:00:00Z"},{"id":108918,"message":"Done Deal: @openlabel raises $25k \u0387 58 intros on AngelList \u0387 Funded by @altendorf","created_at":"2013-09-13T17:00:00Z"},{"id":108809,"message":"Done Deal: @aisle411 raises $6.5M http://www.finsmes.com/2013/09/aisle411-raises-6-3m-series-financing.html \u0387 9 intros on AngelList","created_at":"2013-09-12T17:00:00Z"},{"id":108732,"message":"Done Deal: @wearepopup raises $650k http://www.ft.com/cms/s/0/a7846c80-1713-11e3-9ec2-00144feabdc0.html#axzz2ePOWfpFt \u0387 15 intros on AngelList \u0387 Funded by @arts-alliance-ventures @ucl-advances","created_at":"2013-09-11T17:00:00Z"},{"id":108616,"message":"Done Deal: @openlabel raises money \u0387 57 intros on AngelList \u0387 Funded by @yunfang","created_at":"2013-09-10T17:00:00Z"},{"id":108512,"message":"Done Deal: @openlabel raises $50k \u0387 56 intros on AngelList \u0387 Funded by @daniel-chou-927","created_at":"2013-09-09T18:08:14Z"},{"id":108437,"message":"Done Deal: @wable raises $50k \u0387 9 intros on AngelList","created_at":"2013-09-08T17:00:00Z"},{"id":108397,"message":"Done Deal: @opencare raises money http://canadianprivateequity.com/opencare-secures-seed-financing/2013/08/29/?utm_source=buffer&utm_campaign=Buffer&utm_content=buffer6eba3&utm_medium=twitter \u0387 65 intros on AngelList \u0387 Funded by @real-ventures","created_at":"2013-09-07T17:00:00Z"},{"id":108329,"message":"Done Deal: @ube raises $525k www.fundable.com/ube \u0387 7 intros on AngelList","created_at":"2013-09-06T17:00:00Z"},{"id":108226,"message":"Done Deal: @sqwiggle raises $1.1M http://techcrunch.com/2013/08/29/remote-work-collaboration-startup-sqwiggle-closes-on-1-1m-in-angellists-first-syndicate-round/ \u0387 55 intros on AngelList","created_at":"2013-09-05T17:00:00Z"},{"id":108131,"message":"Done Deal: @vastrm raises $1M http://www.finsmes.com/2013/08/vastrm-fashion-raises-1m-seed-funding.html \u0387 87 intros on AngelList \u0387 Funded by @quest-venture-partners @sv-angel @y-combinator @ignition-partners","created_at":"2013-09-04T17:00:00Z"},{"id":107801,"message":"Done Deal: @watersmart-software raises $4.5M http://www.greentechmedia.com/articles/read/WaterSmart-Scores-4.5M-to-Expand-Water-Saving-Software-Nationally \u0387 12 intros on AngelList \u0387 Funded by @dfj @physic-ventures @westly-group","created_at":"2013-08-30T17:00:00Z"},{"id":107701,"message":"Done Deal: @trendkite raises $1.2M http://www.finsmes.com/2013/08/trendkite-closes-1-2m-series-funding.html \u0387 17 intros on AngelList \u0387 Funded by @joshuabaer @silverton-partners @raymond-walheim @rodrigo-carvalho @dreamit-ventures","created_at":"2013-08-29T17:00:00Z"},{"id":107589,"message":"Done Deal: @piccollage raises $2.3M http://pevc.dowjones.com/article?an=DJFVW00020130821e98las07c&from=alert&pid=32&ReturnUrl=http%3a%2f%2fpevc.dowjones.com%2farticle%3fan%3dDJFVW00020130821e98las07c%26from%3dalert%26pid%3d32 \u0387 33 intros on AngelList","created_at":"2013-08-28T17:00:00Z"},{"id":107471,"message":"Done Deal: @transfergo raises $267k \u0387 10 intros on AngelList \u0387 Funded by @donatas","created_at":"2013-08-27T17:00:00Z"},{"id":107296,"message":"Done Deal: @butter-systems raises $100k \u0387 9 intros on AngelList \u0387 Funded by @david-petersen @ryanp","created_at":"2013-08-25T17:00:00Z"},{"id":107250,"message":"Done Deal: @butter-systems raises money \u0387 9 intros on AngelList \u0387 Funded by @wdaher @tim-abbott-2 @jeffarnold","created_at":"2013-08-24T17:00:00Z"},{"id":107175,"message":"Done Deal: @tamatem raises $25k \u0387 14 intros on AngelList \u0387 Funded by @mi-ventures","created_at":"2013-08-23T17:00:00Z"},{"id":107077,"message":"Done Deal: @provender raises $150k \u0387 9 intros on AngelList \u0387 Funded by @bdc-vc-strategic-investments-initiatives","created_at":"2013-08-22T17:00:00Z"},{"id":106993,"message":"Done Deal: @speek raises $1.1M http://www.finsmes.com/2013/08/speek-raises-1-1m.html \u0387 7 intros on AngelList \u0387 Funded by @500startups @valhalla-partners","created_at":"2013-08-21T17:00:00Z"},{"id":106887,"message":"Done Deal: @tagasauris raises $495k \u0387 6 intros on AngelList","created_at":"2013-08-20T17:00:00Z"},{"id":106642,"message":"Done Deal: @butter-systems raises $50k \u0387 6 intros on AngelList \u0387 Funded by @google-ventures","created_at":"2013-08-17T17:00:00Z"},{"id":106561,"message":"Done Deal: @yachtico raises money \u0387 6 intros on AngelList","created_at":"2013-08-16T17:00:00Z"},{"id":106355,"message":"Done Deal: @wanderu raises $2.5M http://techcrunch.com/2013/08/12/to-match-the-growing-number-of-ground-travelers-startup-wanderu-launches-a-kayak-for-bus-and-train-schedules/ \u0387 18 intros on AngelList","created_at":"2013-08-14T17:00:00Z"}],"total":281,"per_page":50,"page":1,"last_page":6}